{
    "encoding": "UTF-8",
    "title": "ValueCommerce Product Database Search Results",
    "link": "http://www.valuecommerce.com",
    "description": "Processing time: 102 ms",
    "language": "ja",
    "copyright": "Copyright 2019, ValueCommerce Co. Ltd.",
    "adult": "n",
    "category": "cd_dvd,dvd_blu-ray",
    "ecCode": "0mx0w",
    "resultPerPage": 50,
    "sortBy": "score",
    "sortOrder": "desc",
    "page": 1,
    "resultCount": 77319,
    "pageCount": 1547,
    "mediaType": "Web",
    "status": "OK",
    "items": [
        {
            "title": "怒れ！憤れ！ステファン・エセルの遺言",
            "link": "//ck.jp.ap.valuecommerce.com/servlet/referral?vs=9922&vp=882469470&va=2599687&vc_url=https%3A%2F%2F7net.omni7.jp%2Fdetail%2F1400690126",
            "description": "「無関心はいけない。世の不正義に目をつぶるな。怒りを持って行動せよ。」世界人権宣言の起草に関わったステファン・エセルの著書をトニー・ガトリフ監督が翻案し、映像化。「人権問題」「格差問題」「環境問題」など、様々な社会問題への関心を促す作品。ゴダールやクリス・マルケル、ミュージックビデオなどを想起させるスタイリッシュな映像が好奇心を掻き立てる。",
            "guid": "https://7net.omni7.jp/detail/1400690126",
            "pvImg": "<img src=\"//ad.jp.ap.valuecommerce.com/servlet/gifbanner?vs=9922&vp=882469470\" height=\"1\" width=\"1\" border=\"0\">",
            "merchantName": "セブンネットショッピング",
            "ecCode": "0mx0w",
            "janCode": "4933672252100",
            "markCode": "",
            "productCode": "1400690126",
            "modelCode": "1400690126",
            "subStoreId": "pdb2993472",
            "subStoreName": "セブンネットショッピング",
            "adult": "n",
            "startDate": "20190217",
            "category": "cd_dvd,dvd_blu-ray,foreignfilm",
            "imageSmall": {
                "url": "https://img.omni7.jp/co/productimage/0001/product/26/1400690126/image/1400690126_main_s.jpg",
                "height": 70,
                "width": 70
            },
            "imageLarge": {
                "url": "https://img.omni7.jp/co/productimage/0001/product/26/1400690126/image/1400690126_main_m.jpg",
                "height": 100,
                "width": 100
            },
            "imageFree": {
                "url": "https://img.omni7.jp/co/productimage/0001/product/26/1400690126/image/1400690126_main_l.jpg",
                "height": "",
                "width": ""
            },
            "price": 1080,
            "commissionValue": 10,
            "commissionPercent": 1,
            "commissionFixed": "",
            "latitude": "",
            "longitude": "",
            "product_category": "",
            "brand_name": "",
            "brand_url": "",
            "stock": "",
            "postage": "なし",
            "point": "",
            "size": "",
            "color": "",
            "gender": "",
            "shipping_arrangement": "",
            "sale_price": "",
            "sale_start_date": "",
            "sale_end_date": "",
            "product_update_day": ""
        },
        {
            "title": "出川哲朗の充電させてもらえませんか？ 横浜の実家から目指せ “伊勢神宮” パワスポ東海道470キロ！なんと初冠ゴールデンが初DVD化でヤバいよ×2",
            "link": "//ck.jp.ap.valuecommerce.com/servlet/referral?vs=9922&vp=882469470&va=2599687&vc_url=https%3A%2F%2F7net.omni7.jp%2Fdetail%2F1400697678",
            "description": "電動バイクでニッポンを縦断する人情すがり旅「充電させてもらえませんか？」と旅先の心優しき人にお願いしながら電動バイクで旅をする新たな人情すがり旅。中学生が選ぶ「友達になりたい芸能人No.1」にも選ばれる、いまや老若男女を問わず絶大な人気を誇る“出川哲朗”が、個性あふれるゲストと共に電動バイクで旅します。水を飲んでいるだけでもなぜかオモシロイ。しゃべると必ず言い間違える。そして、出川哲朗が行けば街はいつのまにか人だかりができ“出川フィーバー”に。「オイあれ？デガワじゃねぇ？」と子供からお年寄りまで気軽に声かけられる出川哲朗ならではのハプニングが次から次と、“ヤバィよヤバィよ”必至です。出演者：出川哲朗ゲスト：具志堅用高、鈴木奈々、中岡創一（ロッチ）、千秋",
            "guid": "https://7net.omni7.jp/detail/1400697678",
            "pvImg": "<img src=\"//ad.jp.ap.valuecommerce.com/servlet/gifbanner?vs=9922&vp=882469470\" height=\"1\" width=\"1\" border=\"0\">",
            "merchantName": "セブンネットショッピング",
            "ecCode": "0mx0w",
            "janCode": "4988021157308",
            "markCode": "",
            "productCode": "1400697678",
            "modelCode": "1400697678",
            "subStoreId": "pdb2993472",
            "subStoreName": "セブンネットショッピング",
            "adult": "n",
            "startDate": "20190217",
            "category": "cd_dvd,dvd_blu-ray,comedy_variety",
            "imageSmall": {
                "url": "https://img.omni7.jp/co/productimage/0001/product/78/1400697678/image/1400697678_main_s.jpg",
                "height": 70,
                "width": 70
            },
            "imageLarge": {
                "url": "https://img.omni7.jp/co/productimage/0001/product/78/1400697678/image/1400697678_main_m.jpg",
                "height": 100,
                "width": 100
            },
            "imageFree": {
                "url": "https://img.omni7.jp/co/productimage/0001/product/78/1400697678/image/1400697678_main_l.jpg",
                "height": "",
                "width": ""
            },
            "price": 2592,
            "commissionValue": 24,
            "commissionPercent": 1,
            "commissionFixed": "",
            "latitude": "",
            "longitude": "",
            "product_category": "",
            "brand_name": "",
            "brand_url": "",
            "stock": "",
            "postage": "なし",
            "point": "",
            "size": "",
            "color": "",
            "gender": "",
            "shipping_arrangement": "",
            "sale_price": "",
            "sale_start_date": "",
            "sale_end_date": "",
            "product_update_day": ""
        }
    ]
}